{
  "_id": {
      "$oid": "5f9acfd058b42a5e5b8d84b0"
  },
  "email": "walter.gibson@schaden.org",
  "encrypted_password": "$2a$12$7EMIR6b28UbM1l2Ogt9cd.XBrXzDo6U2OvgabEpc2aJolrASp2.ea",
  "role_cd": 0,
  "name": "Vance Rempel",
  "updated_at": {
      "$date": "2020-10-29T14:21:04.960Z"
  },
  "created_at": {
      "$date": "2020-10-29T14:21:04.960Z"
  },
  "place_ids": [{
      "$oid": "5f9acfdc58b42a5e5b8d84b1"
  }],
  "profile": {
      "_id": {
          "$oid": "5f9ad19a58b42a5e5b8d84b2"
      },
      "phone": "88005553535",
      "email": "asdasd@asd.com"
  }
})
